Connect to jdbc:mysql://10.60.60.77:3306
 Query : select username, status, ipaddr, bras, nasportid, mac, serviceclass, policy_up, policy_down, starttime, updatetime from SESSIONS.online where username = 'h004_gftth_tuvd5' and 'KV1' = 'KV1'
 Response : username{,}status{,}ipaddr{,}bras{,}nasportid{,}mac{,}serviceclass{,}policy_up{,}policy_down{,}starttime{,}updatetime
h004_gftth_tuvd5{,}update{,}171.224.24.211{,}10.56.239.120{,}HNI0524OLT01/0/4/28:35/35{,}a08c.f859.3ed5{,}normal{,}u-200m{,}d-200m{,}2020-03-28 19:17:48{,}2020-04-08 18:17:25