([('run_thread.exe',
   'D:\\myproject\\python_workplace\\ironfacemail\\core\\main\\build\\run_thread\\run_thread.exe',
   'EXECUTABLE'),
  ('run_thread.exe.manifest',
   'D:\\myproject\\python_workplace\\ironfacemail\\core\\main\\build\\run_thread\\run_thread.exe.manifest',
   'BINARY'),
  ('api-ms-win-crt-stdio-l1-1-0.dll',
   'C:\\Windows\\system32\\api-ms-win-crt-stdio-l1-1-0.dll',
   'BINARY'),
  ('VCRUNTIME140.dll', 'D:\\python36 new\\VCRUNTIME140.dll', 'BINARY'),
  ('api-ms-win-crt-math-l1-1-0.dll',
   'C:\\Windows\\system32\\api-ms-win-crt-math-l1-1-0.dll',
   'BINARY'),
  ('python36.dll', 'D:\\python36 new\\python36.dll', 'BINARY'),
  ('api-ms-win-crt-locale-l1-1-0.dll',
   'C:\\Windows\\system32\\api-ms-win-crt-locale-l1-1-0.dll',
   'BINARY'),
  ('api-ms-win-crt-heap-l1-1-0.dll',
   'C:\\Windows\\system32\\api-ms-win-crt-heap-l1-1-0.dll',
   'BINARY'),
  ('api-ms-win-crt-runtime-l1-1-0.dll',
   'C:\\Windows\\system32\\api-ms-win-crt-runtime-l1-1-0.dll',
   'BINARY'),
  ('ucrtbase.dll', 'C:\\Windows\\system32\\ucrtbase.dll', 'BINARY'),
  ('api-ms-win-crt-string-l1-1-0.dll',
   'C:\\Windows\\system32\\api-ms-win-crt-string-l1-1-0.dll',
   'BINARY'),
  ('api-ms-win-crt-convert-l1-1-0.dll',
   'C:\\Windows\\system32\\api-ms-win-crt-convert-l1-1-0.dll',
   'BINARY'),
  ('api-ms-win-crt-conio-l1-1-0.dll',
   'C:\\Windows\\system32\\api-ms-win-crt-conio-l1-1-0.dll',
   'BINARY'),
  ('api-ms-win-crt-time-l1-1-0.dll',
   'C:\\Windows\\system32\\api-ms-win-crt-time-l1-1-0.dll',
   'BINARY'),
  ('api-ms-win-crt-environment-l1-1-0.dll',
   'C:\\Windows\\system32\\api-ms-win-crt-environment-l1-1-0.dll',
   'BINARY'),
  ('api-ms-win-crt-process-l1-1-0.dll',
   'C:\\Windows\\system32\\api-ms-win-crt-process-l1-1-0.dll',
   'BINARY'),
  ('api-ms-win-crt-filesystem-l1-1-0.dll',
   'C:\\Windows\\system32\\api-ms-win-crt-filesystem-l1-1-0.dll',
   'BINARY'),
  ('api-ms-win-core-handle-l1-1-0.dll',
   'C:\\Windows\\system32\\api-ms-win-core-handle-l1-1-0.dll',
   'BINARY'),
  ('api-ms-win-core-heap-l1-1-0.dll',
   'C:\\Windows\\system32\\api-ms-win-core-heap-l1-1-0.dll',
   'BINARY'),
  ('api-ms-win-core-timezone-l1-1-0.dll',
   'C:\\Windows\\system32\\api-ms-win-core-timezone-l1-1-0.dll',
   'BINARY'),
  ('api-ms-win-core-synch-l1-1-0.dll',
   'C:\\Windows\\system32\\api-ms-win-core-synch-l1-1-0.dll',
   'BINARY'),
  ('api-ms-win-core-file-l1-2-0.dll',
   'C:\\Windows\\system32\\api-ms-win-core-file-l1-2-0.dll',
   'BINARY'),
  ('api-ms-win-core-profile-l1-1-0.dll',
   'C:\\Windows\\system32\\api-ms-win-core-profile-l1-1-0.dll',
   'BINARY'),
  ('api-ms-win-core-processenvironment-l1-1-0.dll',
   'C:\\Windows\\system32\\api-ms-win-core-processenvironment-l1-1-0.dll',
   'BINARY'),
  ('api-ms-win-core-namedpipe-l1-1-0.dll',
   'C:\\Windows\\system32\\api-ms-win-core-namedpipe-l1-1-0.dll',
   'BINARY'),
  ('api-ms-win-core-sysinfo-l1-1-0.dll',
   'C:\\Windows\\system32\\api-ms-win-core-sysinfo-l1-1-0.dll',
   'BINARY'),
  ('api-ms-win-core-synch-l1-2-0.dll',
   'C:\\Windows\\system32\\api-ms-win-core-synch-l1-2-0.dll',
   'BINARY'),
  ('api-ms-win-core-localization-l1-2-0.dll',
   'C:\\Windows\\system32\\api-ms-win-core-localization-l1-2-0.dll',
   'BINARY'),
  ('api-ms-win-core-libraryloader-l1-1-0.dll',
   'C:\\Windows\\system32\\api-ms-win-core-libraryloader-l1-1-0.dll',
   'BINARY'),
  ('api-ms-win-core-file-l1-1-0.dll',
   'C:\\Windows\\system32\\api-ms-win-core-file-l1-1-0.dll',
   'BINARY'),
  ('api-ms-win-core-debug-l1-1-0.dll',
   'C:\\Windows\\system32\\api-ms-win-core-debug-l1-1-0.dll',
   'BINARY'),
  ('api-ms-win-core-interlocked-l1-1-0.dll',
   'C:\\Windows\\system32\\api-ms-win-core-interlocked-l1-1-0.dll',
   'BINARY'),
  ('api-ms-win-core-file-l2-1-0.dll',
   'C:\\Windows\\system32\\api-ms-win-core-file-l2-1-0.dll',
   'BINARY'),
  ('api-ms-win-core-datetime-l1-1-0.dll',
   'C:\\Windows\\system32\\api-ms-win-core-datetime-l1-1-0.dll',
   'BINARY'),
  ('api-ms-win-core-string-l1-1-0.dll',
   'C:\\Windows\\system32\\api-ms-win-core-string-l1-1-0.dll',
   'BINARY'),
  ('api-ms-win-core-processthreads-l1-1-1.dll',
   'C:\\Windows\\system32\\api-ms-win-core-processthreads-l1-1-1.dll',
   'BINARY'),
  ('api-ms-win-core-console-l1-1-0.dll',
   'C:\\Windows\\system32\\api-ms-win-core-console-l1-1-0.dll',
   'BINARY'),
  ('api-ms-win-core-rtlsupport-l1-1-0.dll',
   'C:\\Windows\\system32\\api-ms-win-core-rtlsupport-l1-1-0.dll',
   'BINARY'),
  ('api-ms-win-core-memory-l1-1-0.dll',
   'C:\\Windows\\system32\\api-ms-win-core-memory-l1-1-0.dll',
   'BINARY'),
  ('api-ms-win-core-processthreads-l1-1-0.dll',
   'C:\\Windows\\system32\\api-ms-win-core-processthreads-l1-1-0.dll',
   'BINARY'),
  ('api-ms-win-core-util-l1-1-0.dll',
   'C:\\Windows\\system32\\api-ms-win-core-util-l1-1-0.dll',
   'BINARY'),
  ('api-ms-win-core-errorhandling-l1-1-0.dll',
   'C:\\Windows\\system32\\api-ms-win-core-errorhandling-l1-1-0.dll',
   'BINARY'),
  ('_ssl', 'D:\\python36 new\\DLLs\\_ssl.pyd', 'EXTENSION'),
  ('unicodedata', 'D:\\python36 new\\DLLs\\unicodedata.pyd', 'EXTENSION'),
  ('pyexpat', 'D:\\python36 new\\DLLs\\pyexpat.pyd', 'EXTENSION'),
  ('_hashlib', 'D:\\python36 new\\DLLs\\_hashlib.pyd', 'EXTENSION'),
  ('_bz2', 'D:\\python36 new\\DLLs\\_bz2.pyd', 'EXTENSION'),
  ('_lzma', 'D:\\python36 new\\DLLs\\_lzma.pyd', 'EXTENSION'),
  ('_socket', 'D:\\python36 new\\DLLs\\_socket.pyd', 'EXTENSION'),
  ('select', 'D:\\python36 new\\DLLs\\select.pyd', 'EXTENSION'),
  ('api-ms-win-crt-utility-l1-1-0.dll',
   'C:\\Windows\\system32\\api-ms-win-crt-utility-l1-1-0.dll',
   'BINARY'),
  ('base_library.zip',
   'D:\\myproject\\python_workplace\\ironfacemail\\core\\main\\build\\run_thread\\base_library.zip',
   'DATA')],)
