('D:\\myproject\\python_workplace\\ironfacemail\\core\\main\\build\\run_thread\\PKG-00.pkg',
 {'BINARY': 1,
  'DATA': 1,
  'EXECUTABLE': 1,
  'EXTENSION': 1,
  'PYMODULE': 1,
  'PYSOURCE': 1,
  'PYZ': 0},
 [('PYZ-00.pyz',
   'D:\\myproject\\python_workplace\\ironfacemail\\core\\main\\build\\run_thread\\PYZ-00.pyz',
   'PYZ'),
  ('struct', 'D:\\python36 new\\lib\\struct.pyo', 'PYMODULE'),
  ('pyimod01_os_path',
   'D:\\python36 '
   'new\\lib\\site-packages\\pyinstaller-3.4-py3.6.egg\\PyInstaller\\loader\\pyimod01_os_path.pyc',
   'PYMODULE'),
  ('pyimod02_archive',
   'D:\\python36 '
   'new\\lib\\site-packages\\pyinstaller-3.4-py3.6.egg\\PyInstaller\\loader\\pyimod02_archive.pyc',
   'PYMODULE'),
  ('pyimod03_importers',
   'D:\\python36 '
   'new\\lib\\site-packages\\pyinstaller-3.4-py3.6.egg\\PyInstaller\\loader\\pyimod03_importers.pyc',
   'PYMODULE'),
  ('pyiboot01_bootstrap',
   'D:\\python36 '
   'new\\lib\\site-packages\\pyinstaller-3.4-py3.6.egg\\PyInstaller\\loader\\pyiboot01_bootstrap.py',
   'PYSOURCE'),
  ('run_thread',
   'D:\\myproject\\python_workplace\\ironfacemail\\core\\main\\run_thread.py',
   'PYSOURCE'),
  ('run_thread.exe.manifest',
   'D:\\myproject\\python_workplace\\ironfacemail\\core\\main\\build\\run_thread\\run_thread.exe.manifest',
   'BINARY')],
 True,
 False,
 False)
