('D:\\myproject\\python_workplace\\ironfacemail\\core\\main\\build\\run_thread\\PYZ-00.pyz',
 [('ntpath', 'D:\\python36 new\\lib\\ntpath.py', 'PYMODULE'),
  ('_strptime', 'D:\\python36 new\\lib\\_strptime.py', 'PYMODULE'),
  ('datetime', 'D:\\python36 new\\lib\\datetime.py', 'PYMODULE'),
  ('stringprep', 'D:\\python36 new\\lib\\stringprep.py', 'PYMODULE'),
  ('fnmatch', 'D:\\python36 new\\lib\\fnmatch.py', 'PYMODULE'),
  ('struct', 'D:\\python36 new\\lib\\struct.py', 'PYMODULE'),
  ('_compat_pickle', 'D:\\python36 new\\lib\\_compat_pickle.py', 'PYMODULE'),
  ('__future__', 'D:\\python36 new\\lib\\__future__.py', 'PYMODULE'),
  ('difflib', 'D:\\python36 new\\lib\\difflib.py', 'PYMODULE'),
  ('ast', 'D:\\python36 new\\lib\\ast.py', 'PYMODULE'),
  ('inspect', 'D:\\python36 new\\lib\\inspect.py', 'PYMODULE'),
  ('cmd', 'D:\\python36 new\\lib\\cmd.py', 'PYMODULE'),
  ('bdb', 'D:\\python36 new\\lib\\bdb.py', 'PYMODULE'),
  ('opcode', 'D:\\python36 new\\lib\\opcode.py', 'PYMODULE'),
  ('dis', 'D:\\python36 new\\lib\\dis.py', 'PYMODULE'),
  ('codeop', 'D:\\python36 new\\lib\\codeop.py', 'PYMODULE'),
  ('code', 'D:\\python36 new\\lib\\code.py', 'PYMODULE'),
  ('glob', 'D:\\python36 new\\lib\\glob.py', 'PYMODULE'),
  ('shlex', 'D:\\python36 new\\lib\\shlex.py', 'PYMODULE'),
  ('importlib._bootstrap',
   'D:\\python36 new\\lib\\importlib\\_bootstrap.py',
   'PYMODULE'),
  ('importlib._bootstrap_external',
   'D:\\python36 new\\lib\\importlib\\_bootstrap_external.py',
   'PYMODULE'),
  ('importlib.machinery',
   'D:\\python36 new\\lib\\importlib\\machinery.py',
   'PYMODULE'),
  ('importlib.util', 'D:\\python36 new\\lib\\importlib\\util.py', 'PYMODULE'),
  ('importlib.abc', 'D:\\python36 new\\lib\\importlib\\abc.py', 'PYMODULE'),
  ('importlib', 'D:\\python36 new\\lib\\importlib\\__init__.py', 'PYMODULE'),
  ('pkgutil', 'D:\\python36 new\\lib\\pkgutil.py', 'PYMODULE'),
  ('xml', 'D:\\python36 new\\lib\\xml\\__init__.py', 'PYMODULE'),
  ('xml.sax.expatreader',
   'D:\\python36 new\\lib\\xml\\sax\\expatreader.py',
   'PYMODULE'),
  ('xml.sax.saxutils',
   'D:\\python36 new\\lib\\xml\\sax\\saxutils.py',
   'PYMODULE'),
  ('urllib.request', 'D:\\python36 new\\lib\\urllib\\request.py', 'PYMODULE'),
  ('getpass', 'D:\\python36 new\\lib\\getpass.py', 'PYMODULE'),
  ('nturl2path', 'D:\\python36 new\\lib\\nturl2path.py', 'PYMODULE'),
  ('ftplib', 'D:\\python36 new\\lib\\ftplib.py', 'PYMODULE'),
  ('netrc', 'D:\\python36 new\\lib\\netrc.py', 'PYMODULE'),
  ('http.cookiejar', 'D:\\python36 new\\lib\\http\\cookiejar.py', 'PYMODULE'),
  ('urllib.response', 'D:\\python36 new\\lib\\urllib\\response.py', 'PYMODULE'),
  ('urllib.error', 'D:\\python36 new\\lib\\urllib\\error.py', 'PYMODULE'),
  ('xml.sax', 'D:\\python36 new\\lib\\xml\\sax\\__init__.py', 'PYMODULE'),
  ('xml.sax.handler',
   'D:\\python36 new\\lib\\xml\\sax\\handler.py',
   'PYMODULE'),
  ('xml.sax._exceptions',
   'D:\\python36 new\\lib\\xml\\sax\\_exceptions.py',
   'PYMODULE'),
  ('xml.sax.xmlreader',
   'D:\\python36 new\\lib\\xml\\sax\\xmlreader.py',
   'PYMODULE'),
  ('xml.parsers',
   'D:\\python36 new\\lib\\xml\\parsers\\__init__.py',
   'PYMODULE'),
  ('xml.parsers.expat',
   'D:\\python36 new\\lib\\xml\\parsers\\expat.py',
   'PYMODULE'),
  ('plistlib', 'D:\\python36 new\\lib\\plistlib.py', 'PYMODULE'),
  ('platform', 'D:\\python36 new\\lib\\platform.py', 'PYMODULE'),
  ('token', 'D:\\python36 new\\lib\\token.py', 'PYMODULE'),
  ('tokenize', 'D:\\python36 new\\lib\\tokenize.py', 'PYMODULE'),
  ('urllib.parse', 'D:\\python36 new\\lib\\urllib\\parse.py', 'PYMODULE'),
  ('tempfile', 'D:\\python36 new\\lib\\tempfile.py', 'PYMODULE'),
  ('tty', 'D:\\python36 new\\lib\\tty.py', 'PYMODULE'),
  ('pydoc_data', 'D:\\python36 new\\lib\\pydoc_data\\__init__.py', 'PYMODULE'),
  ('pydoc_data.topics',
   'D:\\python36 new\\lib\\pydoc_data\\topics.py',
   'PYMODULE'),
  ('html.entities', 'D:\\python36 new\\lib\\html\\entities.py', 'PYMODULE'),
  ('html', 'D:\\python36 new\\lib\\html\\__init__.py', 'PYMODULE'),
  ('ipaddress', 'D:\\python36 new\\lib\\ipaddress.py', 'PYMODULE'),
  ('ssl', 'D:\\python36 new\\lib\\ssl.py', 'PYMODULE'),
  ('http.client', 'D:\\python36 new\\lib\\http\\client.py', 'PYMODULE'),
  ('mimetypes', 'D:\\python36 new\\lib\\mimetypes.py', 'PYMODULE'),
  ('socketserver', 'D:\\python36 new\\lib\\socketserver.py', 'PYMODULE'),
  ('http', 'D:\\python36 new\\lib\\http\\__init__.py', 'PYMODULE'),
  ('http.server', 'D:\\python36 new\\lib\\http\\server.py', 'PYMODULE'),
  ('optparse', 'D:\\python36 new\\lib\\optparse.py', 'PYMODULE'),
  ('uu', 'D:\\python36 new\\lib\\uu.py', 'PYMODULE'),
  ('quopri', 'D:\\python36 new\\lib\\quopri.py', 'PYMODULE'),
  ('email.feedparser',
   'D:\\python36 new\\lib\\email\\feedparser.py',
   'PYMODULE'),
  ('email.parser', 'D:\\python36 new\\lib\\email\\parser.py', 'PYMODULE'),
  ('email', 'D:\\python36 new\\lib\\email\\__init__.py', 'PYMODULE'),
  ('calendar', 'D:\\python36 new\\lib\\calendar.py', 'PYMODULE'),
  ('email._parseaddr',
   'D:\\python36 new\\lib\\email\\_parseaddr.py',
   'PYMODULE'),
  ('email.utils', 'D:\\python36 new\\lib\\email\\utils.py', 'PYMODULE'),
  ('email.errors', 'D:\\python36 new\\lib\\email\\errors.py', 'PYMODULE'),
  ('email.header', 'D:\\python36 new\\lib\\email\\header.py', 'PYMODULE'),
  ('email._policybase',
   'D:\\python36 new\\lib\\email\\_policybase.py',
   'PYMODULE'),
  ('email.base64mime',
   'D:\\python36 new\\lib\\email\\base64mime.py',
   'PYMODULE'),
  ('email.encoders', 'D:\\python36 new\\lib\\email\\encoders.py', 'PYMODULE'),
  ('email.charset', 'D:\\python36 new\\lib\\email\\charset.py', 'PYMODULE'),
  ('base64', 'D:\\python36 new\\lib\\base64.py', 'PYMODULE'),
  ('email._encoded_words',
   'D:\\python36 new\\lib\\email\\_encoded_words.py',
   'PYMODULE'),
  ('hashlib', 'D:\\python36 new\\lib\\hashlib.py', 'PYMODULE'),
  ('bisect', 'D:\\python36 new\\lib\\bisect.py', 'PYMODULE'),
  ('random', 'D:\\python36 new\\lib\\random.py', 'PYMODULE'),
  ('email.generator', 'D:\\python36 new\\lib\\email\\generator.py', 'PYMODULE'),
  ('email.iterators', 'D:\\python36 new\\lib\\email\\iterators.py', 'PYMODULE'),
  ('urllib', 'D:\\python36 new\\lib\\urllib\\__init__.py', 'PYMODULE'),
  ('email._header_value_parser',
   'D:\\python36 new\\lib\\email\\_header_value_parser.py',
   'PYMODULE'),
  ('email.headerregistry',
   'D:\\python36 new\\lib\\email\\headerregistry.py',
   'PYMODULE'),
  ('email.quoprimime',
   'D:\\python36 new\\lib\\email\\quoprimime.py',
   'PYMODULE'),
  ('email.contentmanager',
   'D:\\python36 new\\lib\\email\\contentmanager.py',
   'PYMODULE'),
  ('email.policy', 'D:\\python36 new\\lib\\email\\policy.py', 'PYMODULE'),
  ('email.message', 'D:\\python36 new\\lib\\email\\message.py', 'PYMODULE'),
  ('gzip', 'D:\\python36 new\\lib\\gzip.py', 'PYMODULE'),
  ('tarfile', 'D:\\python36 new\\lib\\tarfile.py', 'PYMODULE'),
  ('bz2', 'D:\\python36 new\\lib\\bz2.py', 'PYMODULE'),
  ('_compression', 'D:\\python36 new\\lib\\_compression.py', 'PYMODULE'),
  ('lzma', 'D:\\python36 new\\lib\\lzma.py', 'PYMODULE'),
  ('py_compile', 'D:\\python36 new\\lib\\py_compile.py', 'PYMODULE'),
  ('zipfile', 'D:\\python36 new\\lib\\zipfile.py', 'PYMODULE'),
  ('shutil', 'D:\\python36 new\\lib\\shutil.py', 'PYMODULE'),
  ('socket', 'D:\\python36 new\\lib\\socket.py', 'PYMODULE'),
  ('webbrowser', 'D:\\python36 new\\lib\\webbrowser.py', 'PYMODULE'),
  ('pydoc', 'D:\\python36 new\\lib\\pydoc.py', 'PYMODULE'),
  ('getopt', 'D:\\python36 new\\lib\\getopt.py', 'PYMODULE'),
  ('pdb', 'D:\\python36 new\\lib\\pdb.py', 'PYMODULE'),
  ('unittest.util', 'D:\\python36 new\\lib\\unittest\\util.py', 'PYMODULE'),
  ('unittest.result', 'D:\\python36 new\\lib\\unittest\\result.py', 'PYMODULE'),
  ('string', 'D:\\python36 new\\lib\\string.py', 'PYMODULE'),
  ('logging', 'D:\\python36 new\\lib\\logging\\__init__.py', 'PYMODULE'),
  ('unittest.case', 'D:\\python36 new\\lib\\unittest\\case.py', 'PYMODULE'),
  ('unittest.suite', 'D:\\python36 new\\lib\\unittest\\suite.py', 'PYMODULE'),
  ('unittest.loader', 'D:\\python36 new\\lib\\unittest\\loader.py', 'PYMODULE'),
  ('unittest.runner', 'D:\\python36 new\\lib\\unittest\\runner.py', 'PYMODULE'),
  ('unittest.main', 'D:\\python36 new\\lib\\unittest\\main.py', 'PYMODULE'),
  ('unittest.signals',
   'D:\\python36 new\\lib\\unittest\\signals.py',
   'PYMODULE'),
  ('unittest', 'D:\\python36 new\\lib\\unittest\\__init__.py', 'PYMODULE'),
  ('doctest', 'D:\\python36 new\\lib\\doctest.py', 'PYMODULE'),
  ('textwrap', 'D:\\python36 new\\lib\\textwrap.py', 'PYMODULE'),
  ('gettext', 'D:\\python36 new\\lib\\gettext.py', 'PYMODULE'),
  ('argparse', 'D:\\python36 new\\lib\\argparse.py', 'PYMODULE'),
  ('pprint', 'D:\\python36 new\\lib\\pprint.py', 'PYMODULE'),
  ('pickle', 'D:\\python36 new\\lib\\pickle.py', 'PYMODULE'),
  ('tracemalloc', 'D:\\python36 new\\lib\\tracemalloc.py', 'PYMODULE'),
  ('copy', 'D:\\python36 new\\lib\\copy.py', 'PYMODULE'),
  ('stat', 'D:\\python36 new\\lib\\stat.py', 'PYMODULE'),
  ('genericpath', 'D:\\python36 new\\lib\\genericpath.py', 'PYMODULE'),
  ('posixpath', 'D:\\python36 new\\lib\\posixpath.py', 'PYMODULE'),
  ('signal', 'D:\\python36 new\\lib\\signal.py', 'PYMODULE'),
  ('contextlib', 'D:\\python36 new\\lib\\contextlib.py', 'PYMODULE'),
  ('_threading_local',
   'D:\\python36 new\\lib\\_threading_local.py',
   'PYMODULE'),
  ('threading', 'D:\\python36 new\\lib\\threading.py', 'PYMODULE'),
  ('selectors', 'D:\\python36 new\\lib\\selectors.py', 'PYMODULE'),
  ('_dummy_thread', 'D:\\python36 new\\lib\\_dummy_thread.py', 'PYMODULE'),
  ('dummy_threading', 'D:\\python36 new\\lib\\dummy_threading.py', 'PYMODULE'),
  ('subprocess', 'D:\\python36 new\\lib\\subprocess.py', 'PYMODULE'),
  ('os', 'D:\\python36 new\\lib\\os.py', 'PYMODULE')])
